<?xml version="1.0" standalone="no"?>
<!DOCTYPE svg PUBLIC "-//W3C//DTD SVG 20010904//EN"
 "http://www.w3.org/TR/2001/REC-SVG-20010904/DTD/svg10.dtd">
<svg version="1.0" xmlns="http://www.w3.org/2000/svg"
 width="600.000000pt" height="600.000000pt" viewBox="0 0 600.000000 600.000000"
 preserveAspectRatio="xMidYMid meet">
<metadata>
Created by potrace 1.11, written by Peter Selinger 2001-2013
</metadata>
<g transform="translate(0.000000,600.000000) scale(0.100000,-0.100000)"
fill="#000000" stroke="none">
<path d="M0 3000 l0 -3000 3000 0 3000 0 0 3000 0 3000 -3000 0 -3000 0 0
-3000z m2930 840 l0 -160 -555 0 -555 0 0 -280 0 -280 485 0 485 0 0 -155 0
-155 -485 0 -485 0 0 -475 0 -475 -185 0 -185 0 0 1070 0 1070 740 0 740 0 0
-160z m1780 0 l0 -160 -555 0 -555 0 0 -280 0 -280 485 0 485 0 0 -155 0 -155
-485 0 -485 0 0 -475 0 -475 -185 0 -185 0 0 1070 0 1070 740 0 740 0 0 -160z"/>
</g>
</svg>
